<?xml version="1.0" encoding="utf-8"?>
<!-- Generator: Adobe Illustrator 16.0.0, SVG Export Plug-In . SVG Version: 6.00 Build 0)  -->
<!DOCTYPE svg PUBLIC "-//W3C//DTD SVG 1.1//EN" "http://www.w3.org/Graphics/SVG/1.1/DTD/svg11.dtd">
<svg version="1.1" id="Layer_1" xmlns="http://www.w3.org/2000/svg" xmlns:xlink="http://www.w3.org/1999/xlink" x="0px" y="0px"
	 width="100px" height="100px" viewBox="0 0 100 100" enable-background="new 0 0 100 100" xml:space="preserve">
<g id="newbie">
	<path fill="#FAAF00" d="M82.633,37.063c-1.011-3.481-3.82-5.945-7.121-6.664c0.562-3.339-0.672-6.875-3.521-9.108
		c-3.06-2.398-7.123-2.621-10.341-0.898c-1.478-3.346-4.812-5.681-8.696-5.681c-3.614,0-6.759,2.022-8.367,5.001
		c-3.04-1.472-6.771-1.271-9.701,0.849c-2.934,2.12-4.306,5.604-3.875,8.963c-3.326,0.588-6.233,2.939-7.376,6.378
		c-1.145,3.439-0.227,7.07,2.081,9.544c-2.354,2.426-3.344,6.042-2.267,9.5c1.076,3.464,3.937,5.869,7.251,6.523
		c-0.496,3.352,0.806,6.856,3.697,9.032c2.892,2.179,6.615,2.454,9.685,1.041c1.551,3.008,4.652,5.095,8.268,5.165
		c3.612,0.068,6.797-1.893,8.465-4.837c3.012,1.532,6.742,1.403,9.717-0.657c2.974-2.062,4.414-5.517,4.048-8.885
		c3.336-0.521,6.288-2.814,7.499-6.23s0.363-7.062-1.895-9.583C82.583,44.136,83.643,40.542,82.633,37.063"/>
	<g id="Captions_1_">
	</g>
	<g>
		<path fill="#FFFFFF" d="M61.224,42.49H44.805c-0.436,0-0.791,0.331-0.791,0.739c0,0.408,0.354,0.739,0.791,0.739h16.419
			c0.438,0,0.791-0.331,0.791-0.739S61.661,42.49,61.224,42.49z"/>
		<path fill="#FFFFFF" d="M49.783,47.418c0.011,0.103,0.05,0.223,0.123,0.37l2.547,12.507c0,0,0.499,0.936,1.092,0l2.546-12.507
			c0.088-0.176,0.126-0.313,0.129-0.426c2.472-0.533,4.183-1.637,4.232-2.917H45.273C45.326,45.773,47.164,46.91,49.783,47.418z"/>
		<path fill="#FFFFFF" d="M46.814,41.296c0.734,0.513,1.441,0.535,1.856,0.507c0.649-0.044,0.695-0.622,0.695-0.622
			c0.061-0.717-0.708-1.493-0.708-1.493c-0.768-0.919-0.061-1.981-0.061-1.981c0.83-1.235,0.523-2.556,0.523-2.556
			c-0.093,0.976-2.521,3.015-2.521,3.015C44.786,39.861,46.814,41.296,46.814,41.296z"/>
		<path fill="#FFFFFF" d="M51.212,41.76c0.254,0.167,0.592,0.296,0.826,0.337c1.636,0.287,1.14-0.882,1.14-0.882
			c-0.707-1.98,1.599-1.867,1.599-1.867c2.306,0.029,1.752,2.212,1.752,2.212c2.06-3.017-1.291-4.681-1.291-4.681
			c-2.06-1.149-1.722-3.015-1.722-3.015c0.676-2.642,2.767-3.13,2.767-3.13c-2.213-0.344-4.733,3.503-4.733,3.503
			C47.676,39.434,51.212,41.76,51.212,41.76z"/>
		<path fill="#FFFFFF" d="M58.403,38.658c0,0,0.055,1.198-0.892,2.699c0,0-0.21,0.317,0.174,0.455
			c0.956,0.263,1.548-0.301,1.886-0.742c0,0,2.891-3.359-3.751-5.226C55.821,35.845,58.526,36.849,58.403,38.658z"/>
	</g>
</g>
<g id="scout" display="none">
	<path display="inline" fill="#00C8C8" d="M79.348,41.606c-1.01-3.481-3.822-5.945-7.121-6.664c0.562-3.34-0.674-6.875-3.521-9.108
		c-3.06-2.398-7.122-2.621-10.339-0.898c-1.477-3.346-4.812-5.681-8.698-5.681c-3.614,0-6.758,2.022-8.366,5.001
		c-3.041-1.472-6.77-1.271-9.702,0.849c-2.933,2.12-4.305,5.604-3.874,8.963c-3.327,0.588-6.233,2.939-7.376,6.378
		c-1.145,3.439-0.227,7.07,2.081,9.544c-2.354,2.426-3.344,6.039-2.267,9.5c1.076,3.463,3.937,5.869,7.251,6.521
		c-0.497,3.353,0.806,6.859,3.697,9.035c2.891,2.179,6.615,2.453,9.684,1.041c1.551,3.009,4.652,5.095,8.267,5.165
		c3.613,0.07,6.797-1.893,8.463-4.837c3.013,1.532,6.742,1.403,9.716-0.658c2.975-2.062,4.414-5.516,4.049-8.885
		c3.335-0.521,6.289-2.813,7.499-6.229c1.212-3.416,0.366-7.062-1.895-9.582C79.298,48.679,80.357,45.087,79.348,41.606"/>
	<path display="inline" fill="#FFFFFF" d="M51.275,55.825c0-1.054,0.342-3.816,1.588-5.527c1.589-2.193,3.05-3.553,6.57-3.553
		c2.403,0,4.295,2.281,4.295,4.735c0,2.457-1.547,5.09-3.224,6.098c0-2.893-1.157-4.692-4.295-4.692
		c-1.978,0-3.396,1.447-3.396,2.939c0.902,0,1.849,0.569,1.849,1.71c-0.646-0.395-1.201-0.658-1.849-0.658
		c0,1.055,0.346,2.281,1.16,3.158c0.172-0.877,0.518-1.579,1.203-1.579c0.814,0,1.588,0.921,1.588,1.931
		c0,1.053-0.601,1.885-1.633,1.885c-1.718,0-3.521-2.233-3.691-5.395h-0.857c0,1.098,0.087,1.975,0.348,2.631
		c0.172,0.483,0.344,0.922,0.344,1.361c0,0.611-0.859,2.808-1.547,4.385c-0.688-1.577-1.546-3.771-1.546-4.385
		c0-0.439,0.172-0.878,0.343-1.361c0.259-0.656,0.344-1.533,0.344-2.631H48.01c-0.172,3.158-1.976,5.395-3.693,5.395
		c-1.031,0-1.633-0.832-1.633-1.885c0-1.01,0.773-1.931,1.59-1.931c0.687,0,1.03,0.702,1.203,1.579
		c0.814-0.877,1.158-2.104,1.158-3.158c-0.643,0-1.201,0.266-1.845,0.658c0-1.141,0.944-1.71,1.845-1.71
		c0-1.492-1.416-2.939-3.392-2.939c-3.135,0-4.294,1.8-4.294,4.692c-1.675-1.008-3.221-3.641-3.221-6.098
		c0-2.457,1.889-4.735,4.295-4.735c3.521,0,4.981,1.36,6.57,3.553c1.246,1.71,1.589,4.474,1.589,5.527h0.688
		c0-2.501-1.118-5.001-2.234-7.15c-0.514-1.008-1.115-2.236-1.115-3.334c0-1.316,0.601-2.762,1.461-4.342
		c0.814-1.534,1.974-3.815,2.748-5.745c0.772,1.93,1.933,4.211,2.749,5.745c0.859,1.58,1.461,3.026,1.461,4.342
		c0,1.098-0.602,2.326-1.115,3.334c-1.117,2.149-2.233,4.649-2.233,7.15H51.275z"/>
</g>
<g id="ranger" display="none">
	<path display="inline" fill="#C80000" d="M79.348,39.884c-1.01-3.481-3.82-5.945-7.119-6.664c0.562-3.34-0.674-6.875-3.521-9.109
		c-3.062-2.398-7.123-2.62-10.34-0.897c-1.478-3.346-4.812-5.681-8.699-5.681c-3.614,0-6.758,2.022-8.367,5
		c-3.041-1.472-6.77-1.27-9.701,0.849c-2.933,2.121-4.305,5.604-3.874,8.963c-3.326,0.588-6.233,2.939-7.376,6.378
		c-1.145,3.439-0.227,7.07,2.081,9.544c-2.354,2.426-3.344,6.04-2.267,9.499c1.076,3.463,3.937,5.87,7.25,6.523
		c-0.496,3.352,0.807,6.859,3.697,9.035c2.891,2.178,6.615,2.453,9.685,1.041c1.551,3.007,4.652,5.094,8.267,5.164
		c3.614,0.07,6.795-1.891,8.461-4.836c3.015,1.531,6.744,1.404,9.718-0.658c2.975-2.062,4.414-5.518,4.049-8.885
		c3.336-0.522,6.289-2.815,7.499-6.232c1.212-3.415,0.366-7.062-1.895-9.581C79.298,46.957,80.357,43.364,79.348,39.884"/>
	<path display="inline" fill="#FFFFFF" d="M52.534,45.57v-6.51h2.274c0.946,0,1.109,0.614,1.229,0.734
		c0.354,0.337,0.591,0.54,1.091,0.54h2.522v-5.528h-2.522c-0.5,0-0.737-0.203-1.091-0.547c-0.117-0.104-0.28-0.726-1.229-0.726
		H51.33v11.273l-1.59-1.026l-14.014,8.943h3.285v10.812h7.956V54.95h5.526v8.584h7.959V52.723h3.272L52.534,45.57z"/>
</g>
<g id="strider" display="none">
	<path display="inline" fill="#96C800" d="M79.348,40.416c-1.01-3.481-3.82-5.945-7.119-6.664c0.562-3.34-0.674-6.875-3.521-9.109
		c-3.062-2.398-7.123-2.62-10.34-0.897c-1.478-3.346-4.812-5.681-8.698-5.681c-3.614,0-6.758,2.022-8.367,5
		c-3.041-1.472-6.77-1.27-9.701,0.849c-2.933,2.121-4.305,5.604-3.874,8.963c-3.326,0.588-6.233,2.939-7.376,6.378
		c-1.145,3.439-0.227,7.07,2.081,9.544c-2.354,2.426-3.344,6.039-2.267,9.499c1.076,3.463,3.937,5.87,7.25,6.522
		c-0.496,3.352,0.807,6.859,3.697,9.035c2.891,2.179,6.615,2.455,9.685,1.041c1.551,3.008,4.652,5.095,8.267,5.166
		c3.613,0.066,6.796-1.895,8.462-4.838c3.014,1.53,6.742,1.402,9.717-0.658c2.975-2.062,4.414-5.519,4.049-8.885
		c3.336-0.521,6.289-2.814,7.499-6.231c1.212-3.415,0.366-7.063-1.896-9.581C79.298,47.489,80.357,43.896,79.348,40.416"/>
	<g display="inline">
		<g>
			<g>
				<ellipse fill="#FFFFFF" cx="50.214" cy="34.564" rx="2.804" ry="2.75"/>
				<path fill="#FFFFFF" d="M58.674,59.525L58.674,59.525L58.674,59.525c-0.031-0.159-2.615-7.217-2.615-7.217l-3.899-3.899
					c0,0,0-6.117,0-7.916c0-1.798-3.324-2.973-3.713-2.708c-0.255,0.173-6.102,3.733-6.102,3.733l-0.62,6.057
					c-0.008,0.056-0.013,0.112-0.013,0.17c0,0.683,0.565,1.237,1.261,1.237c0.697,0,1.262-0.555,1.262-1.237l0.521-4.614l2.905-1.66
					v6.914l5.328,5.045l2.724,6.916l0,0c0.226,0.57,0.785,0.979,1.442,0.979c0.854,0,1.55-0.683,1.55-1.521
					C58.701,59.711,58.701,59.669,58.674,59.525z"/>
				<path fill="#FFFFFF" d="M41.126,58.543c-0.23,0.266-0.37,0.607-0.37,0.982c0,0.839,0.693,1.52,1.547,1.52
					c0.546,0,1.025-0.277,1.3-0.697l4.732-6.007l1.456-3.157l-2.393-2.201l-1.769,3.542L41.126,58.543z"/>
				<path fill="#FFFFFF" d="M52.846,43.623c0,0-0.047,3.41,0,3.34c0.041-0.061,1.75,1.329,2.189,1.688
					c0.033,0.031,0.066,0.058,0.102,0.084h0.002l0,0c0.209,0.155,0.471,0.247,0.754,0.247c0.695,0,1.262-0.554,1.262-1.238
					c0-0.459-0.256-0.743-0.639-1.074L52.846,43.623z"/>
			</g>
		</g>
		<path fill="#FFFFFF" d="M36.229,61.814v-0.98h27v0.98H36.229z"/>
	</g>
</g>
<g id="champion" display="none">
	<path display="inline" fill="#FA7D00" d="M79.008,41.482c-1.01-3.481-3.82-5.945-7.119-6.664c0.562-3.34-0.676-6.875-3.521-9.109
		c-3.062-2.398-7.122-2.62-10.341-0.897c-1.478-3.346-4.812-5.681-8.696-5.681c-3.615,0-6.758,2.022-8.367,5
		c-3.041-1.472-6.77-1.27-9.702,0.849c-2.933,2.121-4.305,5.604-3.874,8.963c-3.327,0.588-6.233,2.939-7.376,6.378
		c-1.145,3.439-0.227,7.07,2.081,9.544c-2.354,2.426-3.344,6.039-2.267,9.498c1.076,3.464,3.937,5.871,7.25,6.521
		c-0.496,3.354,0.807,6.859,3.698,9.035c2.891,2.18,6.614,2.454,9.684,1.041c1.551,3.01,4.653,5.096,8.267,5.165
		c3.614,0.067,6.794-1.894,8.46-4.837c3.015,1.531,6.744,1.402,9.717-0.658c2.977-2.062,4.414-5.517,4.051-8.885
		c3.336-0.521,6.289-2.812,7.499-6.23c1.212-3.414,0.364-7.062-1.896-9.58C78.958,48.556,80.018,44.963,79.008,41.482"/>
	<g id="Layer_2_1_" display="inline">
		<ellipse fill="#FFFFFF" cx="49.357" cy="41.564" rx="3.907" ry="3.898"/>
		<path fill="#FFFFFF" d="M55.652,46.424l-2.008,0.004l-2.924,6.04c-0.296-0.12-0.609-0.202-0.935-0.237l2.812-5.797l-6.49,0.011
			l3.291,6.553c0.003,0,0.006,0,0.008,0c1.469,0,2.657,1.188,2.657,2.651c0,1.467-1.188,2.652-2.657,2.652
			c-1.468,0-2.657-1.188-2.657-2.652c0-1.123,0.699-2.082,1.687-2.471l-3.383-6.735l-6.812,0.011V37.04
			c0-1.053-0.855-1.908-1.912-1.908s-1.913,0.855-1.913,1.908v11.32c0,1.053,0.856,1.907,1.913,1.907h6.81v14.864h12.252
			l0.014-12.734h1.285v10.689c0,2.594,3.729,2.594,3.727,0V51.133C60.419,48.559,58.367,46.424,55.652,46.424z"/>
	</g>
</g>
<g id="ace" display="none">
	<path display="inline" fill="#0064C8" d="M79.861,40.542c-1.01-3.481-3.82-5.945-7.12-6.664c0.562-3.34-0.675-6.875-3.521-9.108
		c-3.062-2.398-7.123-2.621-10.342-0.898c-1.479-3.346-4.812-5.681-8.698-5.681c-3.615,0-6.758,2.022-8.367,5.001
		c-3.041-1.472-6.77-1.271-9.702,0.849c-2.933,2.12-4.305,5.604-3.874,8.963c-3.326,0.588-6.233,2.939-7.376,6.378
		c-1.146,3.439-0.227,7.07,2.081,9.544c-2.354,2.426-3.344,6.04-2.267,9.5c1.076,3.463,3.938,5.87,7.251,6.522
		c-0.496,3.352,0.806,6.86,3.697,9.036c2.891,2.178,6.614,2.453,9.684,1.041c1.551,3.007,4.653,5.093,8.267,5.164
		c3.612,0.067,6.796-1.894,8.463-4.836c3.012,1.529,6.743,1.401,9.716-0.658c2.977-2.062,4.414-5.52,4.051-8.887
		c3.336-0.521,6.287-2.813,7.5-6.23c1.211-3.415,0.363-7.062-1.896-9.581C79.812,47.615,80.872,44.022,79.861,40.542"/>
	<g display="inline">
		<g>
			<path fill="#FFFFFF" d="M57.014,64.189c-0.164,0-0.33-0.039-0.48-0.117l-6.287-3.274l-6.287,3.274
				c-0.351,0.181-0.778,0.152-1.097-0.08c-0.322-0.229-0.482-0.623-0.416-1.012l1.2-6.938l-5.086-4.911
				c-0.283-0.273-0.387-0.685-0.263-1.059c0.122-0.375,0.448-0.647,0.842-0.704l7.028-1.012l3.143-6.31
				c0.353-0.705,1.518-0.705,1.874,0l3.144,6.31l7.026,1.012c0.395,0.057,0.721,0.329,0.842,0.704
				c0.125,0.374,0.021,0.781-0.262,1.059l-5.09,4.911l1.2,6.938c0.065,0.389-0.094,0.779-0.415,1.012
				C57.445,64.124,57.23,64.189,57.014,64.189z"/>
		</g>
		<g>
			<path fill="#FFFFFF" d="M55.312,44.859h-1.098c-0.396,0-0.758-0.223-0.936-0.575l-0.815-1.635
				c-0.524-1.019-0.481-1.492,0.937-1.492h1.912c0.576,0,0.754,0.463,0.754,1.034v1.635C56.066,44.396,55.889,44.859,55.312,44.859z
				"/>
		</g>
		<g>
			<path fill="#FFFFFF" d="M46.22,44.859h-1.386c-0.576,0-0.826-0.463-0.826-1.033V42.19c0-0.571,0.25-1.034,0.826-1.034h2.201
				c1.188,0.021,1.667,0.236,0.936,1.491l-0.815,1.636C46.979,44.635,46.617,44.859,46.22,44.859z"/>
		</g>
		<g>
			<path fill="#FFFFFF" d="M52.704,40.381h-5.213c-0.358,0-0.692-0.183-0.884-0.484l-2.78-4.391
				c-0.201-0.318-0.212-0.72-0.029-1.049c0.184-0.329,0.534-0.262,0.912-0.262h10.776c0.377,0,0.729-0.067,0.912,0.262
				c0.183,0.329,0.172,0.731-0.029,1.049l-2.779,4.391C53.398,40.198,53.062,40.381,52.704,40.381z"/>
		</g>
	</g>
</g>
<g id="olympian_1_" display="none">
	<path display="inline" fill="#FAAF00" d="M79.995,40.762c-1.011-3.481-3.82-5.945-7.12-6.664c0.561-3.34-0.674-6.875-3.521-9.109
		c-3.06-2.398-7.123-2.62-10.34-0.897c-1.477-3.346-4.812-5.681-8.698-5.681c-3.614,0-6.758,2.022-8.367,5.001
		c-3.041-1.472-6.77-1.271-9.702,0.849c-2.933,2.12-4.305,5.604-3.874,8.963c-3.327,0.588-6.233,2.939-7.376,6.378
		c-1.145,3.44-0.227,7.071,2.081,9.544c-2.354,2.426-3.344,6.04-2.267,9.499c1.076,3.463,3.937,5.871,7.251,6.523
		c-0.496,3.352,0.806,6.859,3.697,9.035c2.891,2.179,6.615,2.454,9.684,1.041c1.551,3.007,4.653,5.094,8.267,5.165
		c3.613,0.069,6.797-1.892,8.464-4.837c3.012,1.533,6.742,1.404,9.715-0.657c2.975-2.062,4.416-5.519,4.049-8.886
		c3.338-0.522,6.291-2.814,7.5-6.232c1.211-3.415,0.365-7.062-1.894-9.58C79.945,47.836,81.006,44.243,79.995,40.762"/>
	<g display="inline">
		<path fill="#FFFFFF" d="M57.902,46.191h-15.05c-0.4,0-0.725,0.331-0.725,0.738c0,0.407,0.325,0.739,0.725,0.739h15.05
			c0.396,0,0.725-0.332,0.725-0.739C58.627,46.522,58.302,46.191,57.902,46.191z"/>
		<path fill="#FFFFFF" d="M47.415,51.119c0.011,0.102,0.045,0.222,0.112,0.369l2.336,12.507c0,0,0.456,0.938,0.999,0L53.2,51.488
			c0.079-0.176,0.112-0.312,0.114-0.426c2.267-0.533,3.836-1.638,3.881-2.917H43.281C43.329,49.473,45.014,50.609,47.415,51.119z"/>
		<path fill="#FFFFFF" d="M44.694,44.997c0.673,0.513,1.321,0.535,1.701,0.508c0.595-0.044,0.638-0.623,0.638-0.623
			c0.056-0.718-0.648-1.493-0.648-1.493c-0.705-0.919-0.056-1.981-0.056-1.981c0.761-1.235,0.479-2.556,0.479-2.556
			c-0.084,0.977-2.31,3.016-2.31,3.016C42.834,43.562,44.694,44.997,44.694,44.997z"/>
		<path fill="#FFFFFF" d="M48.725,45.46c0.233,0.167,0.543,0.296,0.757,0.336c1.5,0.287,1.045-0.882,1.045-0.882
			c-0.648-1.98,1.465-1.866,1.465-1.866c2.113,0.03,1.605,2.211,1.605,2.211c1.889-3.017-1.186-4.681-1.186-4.681
			c-1.891-1.148-1.579-3.015-1.579-3.015c0.621-2.641,2.536-3.13,2.536-3.13c-2.023-0.344-4.337,3.503-4.337,3.503
			C45.484,43.135,48.725,45.46,48.725,45.46z"/>
		<path fill="#FFFFFF" d="M55.316,42.358c0,0,0.05,1.198-0.817,2.7c0,0-0.192,0.317,0.159,0.454c0.879,0.263,1.42-0.301,1.729-0.742
			c0,0,2.649-3.359-3.438-5.225C52.95,39.545,55.432,40.549,55.316,42.358z"/>
	</g>
</g>
<g id="hero" display="none">
	<path display="inline" fill="#9600C8" d="M79.995,40.86c-1.011-3.481-3.82-5.945-7.12-6.664c0.561-3.34-0.674-6.875-3.521-9.109
		c-3.06-2.398-7.123-2.62-10.34-0.897c-1.477-3.346-4.812-5.681-8.698-5.681c-3.614,0-6.758,2.022-8.367,5
		c-3.041-1.472-6.77-1.27-9.702,0.849c-2.933,2.121-4.305,5.604-3.874,8.963c-3.327,0.588-6.233,2.939-7.376,6.378
		c-1.145,3.44-0.227,7.071,2.081,9.544c-2.354,2.426-3.344,6.039-2.267,9.499c1.076,3.463,3.937,5.869,7.251,6.523
		c-0.496,3.352,0.806,6.856,3.697,9.032c2.891,2.181,6.615,2.454,9.684,1.041c1.551,3.009,4.653,5.097,8.267,5.165
		c3.613,0.07,6.797-1.891,8.464-4.837c3.012,1.533,6.742,1.403,9.715-0.657c2.975-2.062,4.416-5.518,4.049-8.886
		c3.338-0.521,6.291-2.813,7.5-6.229c1.211-3.416,0.365-7.063-1.894-9.583C79.945,47.934,81.006,44.341,79.995,40.86"/>
	<g display="inline">
		<ellipse fill="#FFFFFF" cx="50.376" cy="36.957" rx="2.456" ry="2.448"/>
		<g>
			<path fill="#FFFFFF" d="M59.038,41.246c-0.462,0.549-1.354,0.582-1.354,0.582l-3.85-0.006l-0.014,1.445l0.005,19.848
				c0,0.757-0.618,1.373-1.376,1.373c-0.762,0-1.379-0.616-1.379-1.373v-11.51l-1.39,0.021v11.51c0,0.761-0.618,1.373-1.379,1.373
				c-0.758,0-1.375-0.612-1.375-1.373l0.003-19.848l-0.012-1.446l-3.852,0.006c0,0-0.894-0.034-1.351-0.583
				c-0.458-0.552-0.319-1.395-0.319-1.395l0.571-3.213c0.229-1.443,2.14-1.146,1.915,0.297l-0.578,2.958h0.487
				c0.13-0.579,0.649-1.007,1.267-1.007c0.62,0,1.141,0.428,1.27,1.007h0.876l6.343-0.021h0.878c0.129-0.579,0.65-1.008,1.266-1.008
				c0.619,0,1.145,0.43,1.272,1.008h0.485l-0.579-2.958c-0.226-1.442,1.687-1.74,1.916-0.297l0.571,3.213
				C59.357,39.851,59.496,40.694,59.038,41.246z"/>
		</g>
	</g>
</g>
<g id="Layer_10" display="none">
	<path display="inline" fill="#004B96" d="M79.807,40.86c-1.01-3.481-3.82-5.945-7.119-6.663c0.562-3.34-0.674-6.875-3.521-9.109
		c-3.06-2.398-7.123-2.62-10.34-0.898c-1.478-3.346-4.813-5.681-8.698-5.681c-3.615,0-6.758,2.022-8.367,5.001
		c-3.041-1.472-6.77-1.271-9.701,0.849c-2.933,2.12-4.304,5.604-3.874,8.963c-3.326,0.588-6.233,2.939-7.376,6.378
		c-1.145,3.439-0.227,7.07,2.081,9.544c-2.355,2.426-3.344,6.04-2.268,9.5c1.076,3.463,3.937,5.87,7.251,6.523
		c-0.496,3.351,0.806,6.856,3.697,9.031c2.891,2.18,6.615,2.454,9.684,1.041c1.551,3.01,4.653,5.096,8.267,5.165
		s6.797-1.892,8.463-4.837c3.013,1.533,6.742,1.404,9.716-0.654c2.975-2.062,4.414-5.52,4.049-8.888
		c3.335-0.521,6.288-2.813,7.499-6.229s0.365-7.063-1.895-9.583C79.757,47.933,80.816,44.34,79.807,40.86"/>
	<g display="inline">
		<path fill="#FFFFFF" d="M49.986,43.896c-5.288,5.708-8.797,9.206-8.797,9.206l4.535,0.723L49.986,43.896z"/>
		<path fill="#FFFFFF" d="M58.948,47.322c-0.335-0.341-0.899-0.359-1.259-0.038l-2.017,1.789l0.146-2.885
			c0.021-0.469-0.358-0.865-0.853-0.887c-0.083-0.002-0.165,0.006-0.239,0.023l-2.518-0.897l0.5-1.296
			c0.186,0.554,0.602,1.037,1.193,1.303c1.129,0.505,2.473,0.042,3-1.033c0.529-1.075,0.046-2.354-1.086-2.859
			c-0.723-0.323-1.53-0.249-2.158,0.129l1.932-5.02c0.174-0.44-0.064-0.928-0.525-1.089c-0.463-0.161-0.979,0.064-1.146,0.503
			l-3.636,9.445c-0.006,0.015-0.01,0.03-0.016,0.045l-3.142,7.156l0.011,0.007c-0.036,0.062-0.068,0.125-0.093,0.192L42.93,62.805
			c-0.25,0.662,0.111,1.391,0.805,1.629c0.149,0.053,0.302,0.075,0.452,0.075c0.547,0,1.061-0.323,1.257-0.843l4.076-10.793
			l0.934,0.453l-2.092,3.412c-0.374,0.604-0.157,1.387,0.479,1.742c0.212,0.117,0.443,0.174,0.671,0.174
			c0.461,0,0.908-0.229,1.156-0.633l3.033-4.947c0.374-0.607,0.156-1.389-0.479-1.741c-0.102-0.058-0.205-0.097-0.312-0.125
			l0.977-1.978l-0.092,1.847c-0.02,0.344,0.188,0.664,0.518,0.812c0.121,0.051,0.248,0.076,0.375,0.076
			c0.222,0,0.438-0.076,0.606-0.229l3.606-3.213C59.266,48.202,59.283,47.666,58.948,47.322z"/>
	</g>
</g>
</svg>
