<?xml version="1.0" standalone="no"?>
<!DOCTYPE svg PUBLIC "-//W3C//DTD SVG 1.1//EN" "http://www.w3.org/Graphics/SVG/1.1/DTD/svg11.dtd">
<svg xmlns="http://www.w3.org/2000/svg"><defs><font id="flaticon" horiz-adv-x="512"><font-face units-per-em="512" ascent="448" descent="-64" x-height="240" cap-height="480"/><missing-glyph horiz-adv-x="512"/><glyph unicode="&#xE000;" glyph-name="advanced" horiz-adv-x="605" d="M303.61296798153 181.77336143732c10.329418849744 15.262872628726 17.626819231155 32.761216501054 21.147044063033 51.492923818127h51.852654822845V233.29198032721V286.04396266185h-51.87834989461c-3.571614975409 18.860182675901 -10.817625213289 36.281441332932 -21.147044063033 51.518618889893 l36.564087122353 36.589782194118L302.8164207568 411.51299809294L266.20094349092 374.92321589883C250.98946100572 385.3040248921 233.49111713339 392.55003512998 214.68232460102 396.17304024892V448H161.93034226639v-51.826959751079C143.12154973402 392.49864498645 125.64890093345 385.3040248921 110.46311352002 374.92321589883 L73.84763625414 411.51299809294L36.461306835291 374.20375388939l36.615477265884 -36.641172337649c-10.329418849744 -15.237177556961 -17.60112415939 -32.632741142226 -21.198434206564 -51.518618889893H0v-52.777677406404h51.87834989461c3.6487001907056 -18.731707317073 10.894710428586 -36.230051189401 21.198434206564 -51.492923818127 l-36.615477265884 -36.615477265884l37.38632941885 -37.309244203553l36.564087122353 36.615477265884C125.64890093345 134.13469838402 143.12154973402 126.81160293084 161.93034226639 123.21429288367v-51.87834989461h52.803372478169V123.21429288367c18.757402388839 3.5973100471745 36.281441332932 10.920405500351 51.518618889893 21.198434206564 l36.615477265884 -36.564087122353l37.334939275319 37.309244203553L303.61296798153 181.77336143732zM188.29348589782 202.12385827562c-31.759108702198 0 -57.556960754793 25.82354712436 -57.556960754793 57.608350898324c0 31.810498845729 25.797852052595 57.556960754793 57.556960754793 57.556960754793 c31.784803773964 0 57.608350898324 -25.746461909064 57.608350898324 -57.556960754793C245.90183679615 227.94740539998 220.07828967179 202.12385827562 188.29348589782 202.12385827562zM604.52795342768 59.156478972197v40.135702097762h-39.416240088327c-2.6979825353809 14.312154973402 -8.1967278932049 27.570812004416 -16.110809996989 39.159289370671l27.802067650306 27.802067650306L548.40991669176 194.64659239185l-27.776372578541 -27.802067650306 c-11.588477366255 7.8883870320185 -24.924219612566 13.387132389842 -39.133594298906 16.16220014052V222.42296497039h-40.135702097762v-39.416240088327c-14.312154973402 -2.800762822443 -27.570812004416 -8.2738131085015 -39.133594298906 -16.16220014052L374.32580548028 194.64659239185l-28.393054300913 -28.367359229148 l27.802067650306 -27.853457793837c-7.8626919602529 -11.588477366255 -13.387132389842 -24.898524540801 -16.16220014052 -39.159289370671h-39.390545016561v-40.135702097762h39.390545016561c2.749372678912 -14.235069758105 8.299508180267 -27.596507076182 16.16220014052 -39.133594298906l-27.802067650306 -27.802067650306 l28.393054300913 -28.393054300913l27.802067650306 27.853457793837c11.56278229449 -7.914082103784 24.872829469035 -13.438522533373 39.133594298906 -16.213590284051v-39.441935160092h40.135702097762v39.441935160092c14.260764829871 2.749372678912 27.545116932651 8.2738131085015 39.10789922714 16.136505068754l27.802067650306 -27.776372578541 l28.393054300913 28.393054300913l-27.802067650306 27.802067650306c7.914082103784 11.537087222724 13.387132389842 24.949914684332 16.110809996989 39.133594298906H604.52795342768zM461.35501355014 35.414232660845c-24.127672387835 0 -43.784402288467 19.631034828867 -43.784402288467 43.835792431998 c0 24.153367459601 19.656729900632 43.733012144936 43.784402288467 43.733012144936c24.179062531366 0 43.784402288467 -19.579644685336 43.784402288467 -43.733012144936C505.1394158386 55.045267489712 485.5340760815 35.414232660845 461.35501355014 35.414232660845z"/><glyph unicode="&#xE001;" glyph-name="create1" horiz-adv-x="415" d="M43.918339337794 344.15508663579C43.918339337794 408.67417944759 83.244159890204 448 140.71435923829 448C180.26587613656 448 219.59169668897 408.67417944759 219.59169668897 344.15508663579C219.59169668897 311.65246320124 180.26587613656 272.32664264882 140.71435923829 272.32664264882C83.244159890204 272.32664264882 43.918339337794 311.65246320124 43.918339337794 344.15508663579ZM291.83736489964 181.8329044433c-13.482930176703 0 -26.416881111683 -2.2837536455653 -38.582261108252 -6.3022816949734c-25.67026934294 32.916795333676 -66.448447418082 54.283067421513 -112.5407445531 54.283067421513C62.978898610396 229.79173100017 0 169.27225939269 0 94.523245839767v-75.122319437296 h175.54160233316c16.51329559101 -48.441928289587 62.364041859667 -83.444844741808 116.29576256648 -83.444844741808c67.809915937554 0 122.94939097615 55.161434208269 122.94939097615 122.94939097615S359.64728083719 181.8329044433 291.83736489964 181.8329044433zM196.00754846457 58.905472636816 c0 52.833762223366 42.9960542117 95.851775604735 95.829816435066 95.851775604735c52.877680562704 0 95.873734774404 -43.018013381369 95.873734774404 -95.851775604735c0 -52.855721393035 -42.9960542117 -95.851775604735 -95.873734774404 -95.851775604735 C239.00360267627 -36.946302967919 196.00754846457 6.049751243781 196.00754846457 58.905472636816zM308.94355807171 129.39440727397h-30.523245839767c-0.021959169668897 -14.624806999485 0 -53.097272259393 0 -53.097272259393s-33.114427860697 0 -49.495968433694 -0.043918339337794v-30.501286670098c16.381540572997 0.021959169668897 49.495968433694 0.021959169668897 49.495968433694 0.021959169668897 s0 -38.42854692057 -0.021959169668897 -53.119231429062h30.523245839767c0.021959169668897 14.690684508492 0.021959169668897 53.119231429062 0.021959169668897 53.119231429062s33.092468691028 0 49.474009264025 0v30.523245839767c-16.381540572997 0 -49.474009264025 0 -49.474009264025 0 S308.92159890204 114.76960027449 308.94355807171 129.39440727397z"/><glyph unicode="&#xE002;" glyph-name="door9" horiz-adv-x="512" d="M384 128v64H224v64h160v64l96 -96L384 128zM352 160v-128H192v-96L0 32V448h352v-160h-32V416H64l128 -64v-288h128v96H352z"/><glyph unicode="&#xE003;" glyph-name="fire14" horiz-adv-x="512" d="M160.504 -64c-34.123 71.004 -15.951 111.689 10.275 150.021c28.72 41.979 36.122 83.533 36.122 83.533 s22.577 -29.35 13.546 -75.254c39.886 44.4 47.413 115.14 41.391 142.232C351.995 173.527 390.526 37.105 338.599 -64 c276.187 156.266 68.699 390.086 32.577 416.425c12.041 -26.338 14.324 -70.925 -10 -92.563C320 416 218.19 448 218.19 448 c12.041 -80.522 -43.648 -168.572 -97.348 -234.365c-1.887 32.108 -3.891 54.264 -20.775 84.99c-3.79 -58.328 -48.366 -105.874 -60.437 -164.314 C23.279 55.168 51.878 -2.779 160.504 -64z"/><glyph unicode="&#xE004;" glyph-name="footsteps" horiz-adv-x="512" d="M290.7392 82.8928c23.52128 -8.05888 44.288 -13.18912 74.12736 -22.35392C353.40288 -84.31104 216.43264 -26.78784 290.7392 82.8928zM413.03552 215.95648 c-1.54624 43.4944 -9.20576 100.54656 -70.22592 91.60704c-28.60544 -7.46496 -49.7408 -38.88128 -59.67872 -93.0816c-5.46304 -29.7984 -2.28864 -71.6288 4.15232 -96.70656 c5.88288 -17.66912 3.88096 -16.58368 10.19904 -19.93728c24.46336 -5.51424 48.67584 -11.61216 73.33888 -17.82784C395.86816 97.69984 416.44544 191.62112 413.03552 215.95648zM224.72192 219.29472c6.43584 25.07776 9.61024 66.90816 4.15232 96.70656c-9.9328 54.20032 -31.06816 85.62176 -59.67872 93.0816 c-61.02016 8.93952 -68.67968 -48.11264 -70.22592 -91.60704c-3.40992 -24.33536 17.16736 -118.26176 42.21952 -135.94624c24.65792 6.21568 48.8704 12.3136 73.33888 17.82784 C220.84096 202.71104 218.83904 201.6256 224.72192 219.29472zM147.13344 162.05312c11.45856 -144.84992 148.4288 -87.32672 74.12736 22.35392 C197.73952 176.35328 176.9728 171.22304 147.13344 162.05312z"/><glyph unicode="&#xE005;" glyph-name="help" horiz-adv-x="512" d="M252.57739130435 447.97773913043C111.20417391304 446.08556521739 -1.8587826086957 329.93391304348 0.022260869565217 188.55513043478c1.8921739130435 -141.31756521739 118.03269565217 -254.41391304348 259.40034782609 -252.53286956522 c141.34539130435 1.9033043478261 254.43060869565 118.05495652174 252.54956521739 259.42260869565C510.08 336.77356521739 393.93391304348 449.86434782609 252.57739130435 447.97773913043zM251.82052173913 36.173913043478l-1.4135652173913 0.022260869565217 c-21.771130434783 0.6455652173913 -37.12 16.68452173913 -36.502260869565 38.132869565217c0.60660869565217 21.081043478261 16.328347826087 36.385391304348 37.381565217391 36.385391304348l1.2633043478261 -0.022260869565217c22.377739130435 -0.66226086956522 37.554086956522 -16.539826086957 36.925217391304 -38.605913043478 C288.85147826087 50.944 273.37460869565 36.173913043478 251.82052173913 36.173913043478zM343.39617391304 217.92834782609c-5.12 -7.2737391304348 -16.378434782609 -16.306086956522 -30.564173913043 -27.358608695652l-15.621565217391 -10.785391304348 c-8.576 -6.6671304347826 -13.751652173913 -12.939130434783 -15.693913043478 -19.110956521739c-1.5304347826087 -4.8584347826087 -2.2817391304348 -6.144 -2.4153043478261 -16.027826086957l-0.022260869565217 -2.5099130434783H219.43095652174l0.17252173913043 5.047652173913 c0.72904347826087 20.747130434783 1.2410434782609 32.951652173913 9.8393043478261 43.035826086957c13.490086956522 15.838608695652 43.247304347826 34.999652173913 44.510608695652 35.812173913043c4.2629565217391 3.2111304347826 7.8580869565217 6.8674782608696 10.534956521739 10.774260869565 c6.2608695652174 8.631652173913 9.032347826087 15.426782608696 9.032347826087 22.105043478261c0 9.2660869565217 -2.7492173913043 17.83652173913 -8.1864347826087 25.466434782609c-5.2257391304348 7.3627826086957 -15.154086956522 11.09147826087 -29.512347826087 11.09147826087 c-14.241391304348 0 -23.991652173913 -4.5189565217391 -29.824 -13.790608695652c-5.9993043478261 -9.5332173913043 -9.032347826087 -19.545043478261 -9.032347826087 -29.773913043478v-2.5433043478261H155.46434782609l0.11130434782609 2.6546086956522 c1.5860869565217 37.670956521739 15.031652173913 64.795826086957 39.947130434783 80.623304347826C211.17773913043 342.7172173913 230.656 347.82608695652 253.38434782609 347.82608695652c29.751652173913 0 54.86747826087 -7.2292173913043 74.640695652174 -21.487304347826 c20.034782608696 -14.447304347826 30.196869565217 -36.084869565217 30.196869565217 -64.311652173913C358.22191304348 246.23860869565 353.23547826087 231.40730434783 343.39617391304 217.92834782609z"/><glyph unicode="&#xE006;" glyph-name="home63" horiz-adv-x="512" d="M512 144l-96 96V384h-64v-80l-96 96L0 144v-16h64v-160h160v96h64v-96h160V128h64V144z"/><glyph unicode="&#xE007;" glyph-name="log" horiz-adv-x="512" d="M474.4635 237.992L401.182 311.2735c-7.328 7.328 -32.539 7.328 -32.539 -7.9305v-167.781 c0 -15.3135 25.211 -15.3135 32.539 -7.9295l73.281 73.2275C481.845 208.242 481.845 230.664 474.4635 237.992zM256.0005 416h-168h-56v-56v-26.2495V116.75V80l168 -112V24h56c30.897 0 56.0005 25.1015 56.0005 56V360 C312.001 390.953 286.8965 416 256.0005 416zM255.979 79.999h-56v224L115.979 360h140V79.999z"/><glyph unicode="&#xE008;" glyph-name="login6" horiz-adv-x="512" d="M447.462 311.2735L374.1795 237.992c-7.383 -7.328 -7.383 -29.75 0 -37.133l73.282 -73.2275 c7.328 -7.384 32.539 -7.384 32.539 7.9295V303.343C480.001 318.6015 454.79 318.6015 447.462 311.2735zM255.999 416h-168h-56v-56v-26.2495V116.75V80l168 -112V24h56c30.896 0 56 25.1015 56 56V360 C311.999 390.953 286.894 416 255.999 416zM255.977 79.999h-56v224L115.977 360h140V79.999z"/><glyph unicode="&#xE009;" glyph-name="simple18" horiz-adv-x="505" d="M377.97383331616 339.94217231551c19.621304213454 0 35.515263898905 15.788468802582 35.515263898905 35.444936643659V412.4847361011c0 19.674049654888 -15.876377871639 35.515263898905 -35.515263898905 35.515263898905 c-19.638886027266 0 -35.497682085093 -15.823632430205 -35.497682085093 -35.515263898905v-37.115208955736C342.47615123107 355.73064111809 358.3349472889 339.94217231551 377.97383331616 339.94217231551zM504.14092922633 386.56914254318h-71.487654956904v-18.056522784245c0 -29.801174410219 -24.210157618214 -54.081659283678 -54.064077469867 -54.081659283678c-29.889083479276 0 -54.046495656056 24.280484873459 -54.046495656056 54.081659283678V386.56914254318 h-144.25878232204v-18.056522784245c0 -29.801174410219 -24.245321245836 -54.081659283678 -54.081659283678 -54.081659283678S72.138182067923 338.69386353491 72.138182067923 368.51261975894V386.56914254318L0 387.46581504756v-451.46581504756h36.060300127056h432.58294701418l36.025136499433 0.10549088286803 L504.14092922633 386.56914254318zM468.62566532743 -28.045190755812H36.060300127056V260.36688300539h432.58294701418V-28.045190755812zM125.63964149583 339.94217231551c19.621304213454 0 35.532845712716 15.788468802582 35.532845712716 35.444936643659V412.4847361011C161.15490539473 432.17636756979 145.26094570928 448 125.63964149583 448S90.159541224546 432.17636756979 90.159541224546 412.4847361011 v-37.115208955736C90.159541224546 355.73064111809 106.00075546856 339.94217231551 125.63964149583 339.94217231551zM180.38940970434 221.66931080663l56.806840424436 0l0 -50.143332989939l-52.745441434017 0ZM272.21922324096 221.66931080663l56.85958586587 0l0 -50.143332989939l-52.745441434017 0ZM357.42069297071 221.66931080663l56.806840424436 0l0 -50.143332989939l-52.745441434017 0ZM180.38940970434 138.40184059613l56.806840424436 0l0 -50.108169362316l-52.745441434017 0ZM272.21922324096 138.40184059613l56.85958586587 0l0 -50.108169362316l-52.745441434017 0ZM357.42069297071 138.40184059613l56.806840424436 0l0 -50.108169362316l-52.745441434017 0ZM180.38940970434 53.481679887366l56.806840424436 0l0 -50.108169362316l-52.745441434017 0ZM90.159541224546 138.40184059613l56.771676796813 0l0 -50.108169362316l-52.745441434017 0ZM90.159541224546 53.481679887366l56.771676796813 0l0 -50.108169362316l-52.745441434017 0ZM272.21922324096 53.481679887366l56.85958586587 0l0 -50.108169362316l-52.745441434017 0ZM357.42069297071 53.481679887366l56.806840424436 0l0 -50.108169362316l-52.745441434017 0Z"/><glyph unicode="&#xE00A;" glyph-name="user47" horiz-adv-x="512" d="M192.016 160c35.344 0 64 28.656 64 64s-28.656 64 -64 64s-64 -28.656 -64 -64S156.672 160 192.016 160zM384.016 223.056V358.656L294.64 448H0.016v-512h384 v0.976C456 -55.056 512 5.872 512 80S456 215.088 384.016 223.056zM287.984 409.392L345.392 352h-57.408V409.392zM32.016 -32V416.032h224v-96.016h96 v-96.96c-55.648 -6.16 -101.568 -44 -119.632 -95.056c-56.992 0 -136.368 0 -136.368 0s-32 0 -32 -32c0 -16 0 -96 0 -96h184.288c8.096 -12.096 18 -22.88 29.328 -32 H32.016zM368.016 -31.984c-61.824 0.128 -111.904 50.16 -112 111.984c0.096 61.84 50.176 111.904 112 112c61.824 -0.096 111.856 -50.16 111.984 -112 C479.872 18.176 429.84 -31.856 368.016 -31.984zM352 16h-48v48L352 16zM448 112l-80 -80l-48 48.016l80 80L448 112z"/><glyph unicode="&#xE00B;" glyph-name="walking3" horiz-adv-x="512" d="M236.30769230769 398.76923076923C236.30769230769 430.36690707692 253.94078523077 448 285.53846153846 448C297.44383015385 448 315.07692307692 430.36690707692 315.07692307692 398.76923076923C315.07692307692 386.86386215385 297.44383015385 369.23076923077 285.53846153846 369.23076923077C253.94078523077 369.23076923077 236.30769230769 386.86386215385 236.30769230769 398.76923076923ZM400.40369230769 188.55384615385c-9.5507692307692 4.3716923076923 -73.019076923077 35.879384615385 -73.019076923077 35.879384615385s-22.567384615385 47.970461538462 -34.146461538462 74.24 C282.30892307692 323.42646153846 274.39261538462 329.84615384615 258.77661538462 329.84615384615c-5.7698461538462 0 -17.762461538462 0 -24.004923076923 0c-12.622769230769 0 -17.230769230769 -4.608 -24.930461538462 -8.9206153846154L144.896 265.62953846154 c-5.7501538461538 -3.3083076923077 -9.3735384615385 -8.1723076923077 -11.618461538462 -15.104l-13.902769230769 -93.597538461538c-1.9889230769231 -14.926769230769 5.8486153846154 -21.228307692308 14.769230769231 -23.079384615385c7.2270769230769 -1.4966153846154 18.156307692308 2.1464615384615 20.302769230769 12.622769230769 c1.7723076923077 8.6252307692308 14.907076923077 85.188923076923 14.907076923077 85.188923076923l42.417230769231 32.551384615385c-6.9710769230769 -32.452923076923 -14.08 -68.076307692308 -16.443076923077 -80.108307692308c-4.0369230769231 -20.676923076923 6.3015384615385 -36.411076923077 14.395076923077 -48.659692307692 c7.424 -11.224615384615 103.36492307692 -162.44184615385 116.02707692308 -178.90461538462s24.182153846154 -24.595692307692 41.846153846154 -14.769230769231c14.769230769231 8.2116923076923 12.307692307692 27.076923076923 4.096 41.019076923077s-105.01907692308 171.48061538462 -105.01907692308 171.48061538462 l16.285538461538 70.144c0 0 11.224615384615 -15.990153846154 17.033846153846 -25.028923076923c2.7963076923077 -4.3126153846154 5.6516923076923 -5.9667692307692 13.252923076923 -10.161230769231c8.9009230769231 -4.9230769230769 52.283076923077 -24.615384615385 65.476923076923 -30.503384615385 c11.677538461538 -5.2184615384615 26.190769230769 -7.2270769230769 32.039384615385 3.1113846153846C416.63015384615 172.15015384615 409.14707692308 184.53661538462 400.40369230769 188.55384615385zM186.24984615385 124.928l-19.692307692308 -69.139692307692c0 0 -40.900923076923 -59.214769230769 -52.283076923077 -75.795692307692c-8.5267692307692 -12.465230769231 -14.966153846154 -27.628307692308 -0.33476923076923 -38.695384615385 c16.403692307692 -12.425846153846 29.538461538462 3.7415384615385 38.045538461538 13.312c7.7981538461538 8.8024615384615 39.463384615385 53.070769230769 48.443076923077 64.393846153846c5.9667692307692 7.5421538461538 9.2750769230769 13.883076923077 11.815384615385 20.204307692308 c1.6935384615385 4.2338461538462 8.1329230769231 21.779692307692 12.248615384615 33.083076923077L186.24984615385 124.928z"/></font></defs></svg>
